// Jest Snapshot v1, https://goo.gl/fbAQLP

exports[`<Footer /> renders <Footer /> component 1`] = `
<div>
  <footer
    class="MuiContainer-root makeStyles-root-1"
  >
    <div
      class="MuiBox-root MuiBox-root-3"
    >
      <h6
        class="MuiTypography-root makeStyles-copyright-2 large MuiTypography-subtitle1"
      >
        © Etéreo 2020
      </h6>
    </div>
  </footer>
</div>
`;
